Práctica con dplyr y gapminder
…
Usaremos las siguientes librerías:

library(dplyr)
library(gapminder)

Ejercicios y soluciones

1. Seleccionar columnas country, year y lifeExp

Seleccione únicamente las columnas country, year y lifeExp del conjunto de datos.

gapminder %>% select(country, year, lifeExp)

# A tibble: 1,704 × 3
   country      year lifeExp
   <fct>       <int>   <dbl>
 1 Afghanistan  1952    28.8
 2 Afghanistan  1957    30.3
 3 Afghanistan  1962    32.0
 4 Afghanistan  1967    34.0
 5 Afghanistan  1972    36.1
 6 Afghanistan  1977    38.4
 7 Afghanistan  1982    39.9
 8 Afghanistan  1987    40.8
 9 Afghanistan  1992    41.7
10 Afghanistan  1997    41.8
# ℹ 1,694 more rows

Explicación: La función select() permite escoger columnas específicas, lo cual es útil cuando se quiere reducir el tamaño del dataset o concentrarse en variables puntuales para análisis posteriores. En este caso, extraemos el país, el año y la esperanza de vida, tres variables esenciales para entender la evolución demográfica. country, year y lifeExp del conjunto de datos.

2. Filtrar observaciones del año 2007

Muestre únicamente las observaciones correspondientes al año 2007, de manera que solo se visualicen los datos más recientes del conjunto.

gapminder %>% filter(year == 2007)

# A tibble: 142 × 6
   country     continent  year lifeExp       pop gdpPercap
   <fct>       <fct>     <int>   <dbl>     <int>     <dbl>
 1 Afghanistan Asia       2007    43.8  31889923      975.
 2 Albania     Europe     2007    76.4   3600523     5937.
 3 Algeria     Africa     2007    72.3  33333216     6223.
 4 Angola      Africa     2007    42.7  12420476     4797.
 5 Argentina   Americas   2007    75.3  40301927    12779.
 6 Australia   Oceania    2007    81.2  20434176    34435.
 7 Austria     Europe     2007    79.8   8199783    36126.
 8 Bahrain     Asia       2007    75.6    708573    29796.
 9 Bangladesh  Asia       2007    64.1 150448339     1391.
10 Belgium     Europe     2007    79.4  10392226    33693.
# ℹ 132 more rows

Explicación: La función filter() permite seleccionar filas basadas en condiciones lógicas. Aquí filtramos el año 2007, lo que es útil cuando se quiere analizar un año específico y evitar mezclarlo con datos de otros periodos.:** filter() mantiene solo las filas que cumplen la condición indicada.

3. Filtrar países de Asia

Seleccione únicamente los países pertenecientes al continente asiático para analizar esta región específica.

gapminder %>% filter(continent == "Asia")

# A tibble: 396 × 6
   country     continent  year lifeExp      pop gdpPercap
   <fct>       <fct>     <int>   <dbl>    <int>     <dbl>
 1 Afghanistan Asia       1952    28.8  8425333      779.
 2 Afghanistan Asia       1957    30.3  9240934      821.
 3 Afghanistan Asia       1962    32.0 10267083      853.
 4 Afghanistan Asia       1967    34.0 11537966      836.
 5 Afghanistan Asia       1972    36.1 13079460      740.
 6 Afghanistan Asia       1977    38.4 14880372      786.
 7 Afghanistan Asia       1982    39.9 12881816      978.
 8 Afghanistan Asia       1987    40.8 13867957      852.
 9 Afghanistan Asia       1992    41.7 16317921      649.
10 Afghanistan Asia       1997    41.8 22227415      635.
# ℹ 386 more rows

Explicación: filter() permite restringir el conjunto de datos a condiciones categóricas, como el continente. Esto ayuda a realizar comparaciones regionales o análisis enfocados en una sola parte del mundo.:** Se usa filter() para limitar el conjunto de datos a un continente específico.

4. Filtrar filas con esperanza de vida mayor a 70

Enunciado: Identifique y muestre únicamente las observaciones en las que la esperanza de vida sea superior a 70 años.

gapminder %>% filter(lifeExp > 70)

# A tibble: 493 × 6
   country   continent  year lifeExp      pop gdpPercap
   <fct>     <fct>     <int>   <dbl>    <int>     <dbl>
 1 Albania   Europe     1982    70.4  2780097     3631.
 2 Albania   Europe     1987    72    3075321     3739.
 3 Albania   Europe     1992    71.6  3326498     2497.
 4 Albania   Europe     1997    73.0  3428038     3193.
 5 Albania   Europe     2002    75.7  3508512     4604.
 6 Albania   Europe     2007    76.4  3600523     5937.
 7 Algeria   Africa     2002    71.0 31287142     5288.
 8 Algeria   Africa     2007    72.3 33333216     6223.
 9 Argentina Americas   1987    70.8 31620918     9140.
10 Argentina Americas   1992    71.9 33958947     9308.
# ℹ 483 more rows

Explicación: Esta tarea requiere aplicar una comparación numérica dentro de filter(). Es útil cuando se desea observar únicamente los países con condiciones demográficas favorables o por encima de un umbral determinado.:** Se aplica una condición numérica simple usando filter().

5. Ordenar por esperanza de vida ascendente

Ordene todo el dataset según la esperanza de vida, desde la más baja hasta la más alta.

gapminder %>% arrange(lifeExp)

# A tibble: 1,704 × 6
   country      continent  year lifeExp     pop gdpPercap
   <fct>        <fct>     <int>   <dbl>   <int>     <dbl>
 1 Rwanda       Africa     1992    23.6 7290203      737.
 2 Afghanistan  Asia       1952    28.8 8425333      779.
 3 Gambia       Africa     1952    30    284320      485.
 4 Angola       Africa     1952    30.0 4232095     3521.
 5 Sierra Leone Africa     1952    30.3 2143249      880.
 6 Afghanistan  Asia       1957    30.3 9240934      821.
 7 Cambodia     Asia       1977    31.2 6978607      525.
 8 Mozambique   Africa     1952    31.3 6446316      469.
 9 Sierra Leone Africa     1957    31.6 2295678     1004.
10 Burkina Faso Africa     1952    32.0 4469979      543.
# ℹ 1,694 more rows

Explicación: arrange() organiza las filas en un orden específico de acuerdo con una variable. Ordenar los datos permite identificar rápidamente qué países tienen los valores más bajos o más altos y facilita comparaciones visuales.

6. Ordenar por PIB per cápita en orden descendente

Ordene el conjunto de datos desde el mayor hasta el menor valor de gdpPercap.

gapminder %>% arrange(desc(gdpPercap))

# A tibble: 1,704 × 6
   country   continent  year lifeExp     pop gdpPercap
   <fct>     <fct>     <int>   <dbl>   <int>     <dbl>
 1 Kuwait    Asia       1957    58.0  212846   113523.
 2 Kuwait    Asia       1972    67.7  841934   109348.
 3 Kuwait    Asia       1952    55.6  160000   108382.
 4 Kuwait    Asia       1962    60.5  358266    95458.
 5 Kuwait    Asia       1967    64.6  575003    80895.
 6 Kuwait    Asia       1977    69.3 1140357    59265.
 7 Norway    Europe     2007    80.2 4627926    49357.
 8 Kuwait    Asia       2007    77.6 2505559    47307.
 9 Singapore Asia       2007    80.0 4553009    47143.
10 Norway    Europe     2002    79.0 4535591    44684.
# ℹ 1,694 more rows

Explicación: arrange(desc()) permite ordenar los datos de forma descendente. Esto resulta útil para identificar qué países presentan los mayores niveles de ingresos per cápita.

7. Crear columna gdp_total

Cree una nueva columna llamada gdp_total que represente el PIB total del país (población × PIB per cápita).

gapminder %>% mutate(gdp_total = gdpPercap * pop)

# A tibble: 1,704 × 7
   country     continent  year lifeExp      pop gdpPercap    gdp_total
   <fct>       <fct>     <int>   <dbl>    <int>     <dbl>        <dbl>
 1 Afghanistan Asia       1952    28.8  8425333      779.  6567086330.
 2 Afghanistan Asia       1957    30.3  9240934      821.  7585448670.
 3 Afghanistan Asia       1962    32.0 10267083      853.  8758855797.
 4 Afghanistan Asia       1967    34.0 11537966      836.  9648014150.
 5 Afghanistan Asia       1972    36.1 13079460      740.  9678553274.
 6 Afghanistan Asia       1977    38.4 14880372      786. 11697659231.
 7 Afghanistan Asia       1982    39.9 12881816      978. 12598563401.
 8 Afghanistan Asia       1987    40.8 13867957      852. 11820990309.
 9 Afghanistan Asia       1992    41.7 16317921      649. 10595901589.
10 Afghanistan Asia       1997    41.8 22227415      635. 14121995875.
# ℹ 1,694 more rows
…
Explicación: Combinando condiciones dentro de filter(), se puede crear subconjuntos específicos como países muy poblados.

9. Países de Europa mostrando solo country y gdpPercap

Seleccione únicamente los países europeos y muestre solo sus columnas country y gdpPercap.

gapminder %>% filter(continent == "Europe") %>% select(country, gdpPercap)

# A tibble: 360 × 2
   country gdpPercap
   <fct>       <dbl>
 1 Albania     1601.
 2 Albania     1942.
 3 Albania     2313.
 4 Albania     2760.
 5 Albania     3313.
 6 Albania     3533.
 7 Albania     3631.
 8 Albania     3739.
 9 Albania     2497.
10 Albania     3193.
# ℹ 350 more rows
…
Explicación: group_by() y summarise() permiten generar estadísticas agregadas útiles para comparar regiones.

11. Promedio de PIB per cápita por continente y año

Calcule el PIB per cápita promedio para cada continente en cada año disponible.

gapminder %>% group_by(continent, year) %>% summarise(avg_gdpPercap = mean(gdpPercap))

# A tibble: 60 × 3
# Groups:   continent [5]
   continent  year avg_gdpPercap
   <fct>     <int>         <dbl>
 1 Africa     1952         1253.
 2 Africa     1957         1385.
 3 Africa     1962         1598.
 4 Africa     1967         2050.
 5 Africa     1972         2340.
 6 Africa     1977         2586.
 7 Africa     1982         2482.
 8 Africa     1987         2283.
 9 Africa     1992         2282.
10 Africa     1997         2379.
# ℹ 50 more rows
…
Explicación: La mediana es una estadística robusta frente a valores extremos y ayuda a comparar regiones de forma más representativa.

19. Cambio en esperanza de vida entre 1952 y 2007

Determine cuánto cambió la esperanza de vida en cada país entre los años 1952 y 2007.

library(tidyr)
gapminder %>%
  filter(year %in% c(1952, 2007)) %>%
  select(country, year, lifeExp) %>%
  pivot_wider(names_from = year, values_from = lifeExp) %>%
  mutate(change_lifeExp = `2007` - `1952`)

# A tibble: 142 × 4
   country     `1952` `2007` change_lifeExp
   <fct>        <dbl>  <dbl>          <dbl>
 1 Afghanistan   28.8   43.8           15.0
 2 Albania       55.2   76.4           21.2
 3 Algeria       43.1   72.3           29.2
 4 Angola        30.0   42.7           12.7
 5 Argentina     62.5   75.3           12.8
 6 Australia     69.1   81.2           12.1
 7 Austria       66.8   79.8           13.0
 8 Bahrain       50.9   75.6           24.7
 9 Bangladesh    37.5   64.1           26.6
10 Belgium       68     79.4           11.4
# ℹ 132 more rows
…
